%YAML 1.1
%TAG !u! tag:unity3d.com,2011:
--- !u!1 &4852273564267802793
GameObject:
  m_ObjectHideFlags: 0
  m_CorrespondingSourceObject: {fileID: 0}
  m_PrefabInstance: {fileID: 0}
  m_PrefabAsset: {fileID: 0}
  serializedVersion: 6
  m_Component:
  - component: {fileID: 6571012245631777385}
  m_Layer: 0
  m_Name: TreePivot
  m_TagString: Untagged
  m_Icon: {fileID: 0}
  m_NavMeshLayer: 0
  m_StaticEditorFlags: 125
  m_IsActive: 1
--- !u!4 &6571012245631777385
Transform:
  m_ObjectHideFlags: 0
  m_CorrespondingSourceObject: {fileID: 0}
  m_PrefabInstance: {fileID: 0}
  m_PrefabAsset: {fileID: 0}
  m_GameObject: {fileID: 4852273564267802793}
  serializedVersion: 2
  m_LocalRotation: {x: 0, y: 1, z: 0.00017470751, w: 0}
  m_LocalPosition: {x: 31.101341, y: 0.13906874, z: 2.8468585}
  m_LocalScale: {x: 74.90565, y: 74.90563, z: 74.90563}
  m_ConstrainProportionsScale: 0
  m_Children:
  - {fileID: 9133720650847197175}
  m_Father: {fileID: 0}
  m_LocalEulerAnglesHint: {x: -179.98, y: 0, z: 180}
--- !u!1001 &8531783531912814984
PrefabInstance:
  m_ObjectHideFlags: 0
  serializedVersion: 2
  m_Modification:
    serializedVersion: 3
    m_TransformParent: {fileID: 6571012245631777385}
    m_Modifications:
    - target: {fileID: 623613726537643647, guid: 354c3c0bc42db6f42af23879a587bcf7,
        type: 3}
      propertyPath: m_LocalScale.x
      value: 1
      objectReference: {fileID: 0}
    - target: {fileID: 623613726537643647, guid: 354c3c0bc42db6f42af23879a587bcf7,
        type: 3}
      propertyPath: m_LocalScale.y
      value: 1
      objectReference: {fileID: 0}
    - target: {fileID: 623613726537643647, guid: 354c3c0bc42db6f42af23879a587bcf7,
        type: 3}
      propertyPath: m_LocalScale.z
      value: 1
      objectReference: {fileID: 0}
    - target: {fileID: 623613726537643647, guid: 354c3c0bc42db6f42af23879a587bcf7,
        type: 3}
      propertyPath: m_LocalPosition.x
      value: 0
      objectReference: {fileID: 0}
    - target: {fileID: 623613726537643647, guid: 354c3c0bc42db6f42af23879a587bcf7,
        type: 3}
      propertyPath: m_LocalPosition.y
      value: 0
      objectReference: {fileID: 0}
    - target: {fileID: 623613726537643647, guid: 354c3c0bc42db6f42af23879a587bcf7,
        type: 3}
      propertyPath: m_LocalPosition.z
      value: 0.010100001
      objectReference: {fileID: 0}
    - target: {fileID: 623613726537643647, guid: 354c3c0bc42db6f42af23879a587bcf7,
        type: 3}
      propertyPath: m_LocalRotation.w
      value: 0
      objectReference: {fileID: 0}
    - target: {fileID: 623613726537643647, guid: 354c3c0bc42db6f42af23879a587bcf7,
        type: 3}
      propertyPath: m_LocalRotation.x
      value: -0
      objectReference: {fileID: 0}
    - target: {fileID: 623613726537643647, guid: 354c3c0bc42db6f42af23879a587bcf7,
        type: 3}
      propertyPath: m_LocalRotation.y
      value: -0.7071068
      objectReference: {fileID: 0}
    - target: {fileID: 623613726537643647, guid: 354c3c0bc42db6f42af23879a587bcf7,
        type: 3}
      propertyPath: m_LocalRotation.z
      value: -0.7071068
      objectReference: {fileID: 0}
    - target: {fileID: 623613726537643647, guid: 354c3c0bc42db6f42af23879a587bcf7,
        type: 3}
      propertyPath: m_LocalEulerAnglesHint.x
      value: -89.98
      objectReference: {fileID: 0}
    - target: {fileID: 623613726537643647, guid: 354c3c0bc42db6f42af23879a587bcf7,
        type: 3}
      propertyPath: m_LocalEulerAnglesHint.y
      value: 0
      objectReference: {fileID: 0}
    - target: {fileID: 623613726537643647, guid: 354c3c0bc42db6f42af23879a587bcf7,
        type: 3}
      propertyPath: m_LocalEulerAnglesHint.z
      value: 0
      objectReference: {fileID: 0}
    - target: {fileID: 5846318815462073991, guid: 354c3c0bc42db6f42af23879a587bcf7,
        type: 3}
      propertyPath: m_Name
      value: Tree_LDO_1 (2)
      objectReference: {fileID: 0}
    - target: {fileID: 5846318815462073991, guid: 354c3c0bc42db6f42af23879a587bcf7,
        type: 3}
      propertyPath: m_StaticEditorFlags
      value: 125
      objectReference: {fileID: 0}
    m_RemovedComponents: []
    m_RemovedGameObjects: []
    m_AddedGameObjects: []
    m_AddedComponents: []
  m_SourcePrefab: {fileID: 100100000, guid: 354c3c0bc42db6f42af23879a587bcf7, type: 3}
--- !u!4 &9133720650847197175 stripped
Transform:
  m_CorrespondingSourceObject: {fileID: 623613726537643647, guid: 354c3c0bc42db6f42af23879a587bcf7,
    type: 3}
  m_PrefabInstance: {fileID: 8531783531912814984}
  m_PrefabAsset: {fileID: 0}
