%YAML 1.1
%TAG !u! tag:unity3d.com,2011:
--- !u!114 &11400000
MonoBehaviour:
  m_ObjectHideFlags: 0
  m_CorrespondingSourceObject: {fileID: 0}
  m_PrefabInstance: {fileID: 0}
  m_PrefabAsset: {fileID: 0}
  m_GameObject: {fileID: 0}
  m_Enabled: 1
  m_EditorHideFlags: 0
  m_Script: {fileID: 11500000, guid: c1d1d4f54ff2a3a428f05b93f350cdcb, type: 3}
  m_Name: PropsObjectSpawn_ObjectSurfaceSnapSettings
  m_EditorClassIdentifier: 
  _snapMode: 0
  _snapSingleTargetToCursor: 1
  _alignAxis: 1
  _alignmentAxis: 1
  _invertAlignmentAxis: 0
  _implicitOffsetFromSurface: 0
  _embedInSurface: 1
  _surfaceTypes: -1
  _surfaceLayers: 0
