%YAML 1.1
%TAG !u! tag:unity3d.com,2011:
--- !u!114 &11400000
MonoBehaviour:
  m_ObjectHideFlags: 0
  m_CorrespondingSourceObject: {fileID: 0}
  m_PrefabInstance: {fileID: 0}
  m_PrefabAsset: {fileID: 0}
  m_GameObject: {fileID: 0}
  m_Enabled: 1
  m_EditorHideFlags: 0
  m_Script: {fileID: 11500000, guid: 3323a5b1f625a71479ae7cd1182db3eb, type: 3}
  m_Name: IntRangePrefabProfileDbUI
  m_EditorClassIdentifier: 
  _prefabPreviewScale: 0.7
  _prefabViewState: {fileID: 3635824896843195484, guid: d4acd2e898c07b843ae496fb04e78692,
    type: 2}
