%YAML 1.1
%TAG !u! tag:unity3d.com,2011:
--- !u!114 &-8072932486934849201
MonoBehaviour:
  m_ObjectHideFlags: 0
  m_CorrespondingSourceObject: {fileID: 0}
  m_PrefabInstance: {fileID: 0}
  m_PrefabAsset: {fileID: 0}
  m_GameObject: {fileID: 0}
  m_Enabled: 1
  m_EditorHideFlags: 0
  m_Script: {fileID: 11500000, guid: 94d5ad21018e4134998ec90780bda311, type: 3}
  m_Name: PP_Rock_Pile_Forest_Moss_05
  m_EditorClassIdentifier: 
  _guid:
    _guidString: dc31a2bf-50e2-449f-9ba8-2453d9fc4eb3
  _pluginPrefab: {fileID: -8592601977626369602, guid: 298c89fb13162fe4aa4fbdb0d6db6bf0,
    type: 2}
  _preview:
    _prefabAsset: {fileID: 4336573817422939753, guid: 50554fd62c43fb44da528e351ae93797,
      type: 3}
    _texture: {fileID: 0}
    _yaw: 0
    _pitch: 0
  _uiSelected: 1
  _used: 1
  _spawnChance: 1
  _alignAxes: 0
  _upAxis: 1
  _invertUpAxis: 0
  _alignUpAxisWhenProjected: 1
  _forwardAxis: 3
  _invertForwardAxis: 0
  _jitterMode: 2
  _jitter: 0.5
  _minRandomJitter: 0
  _maxRandomJitter: 0.5
  _randomizeForwardAxisRotation: 0
  _minRandomForwardAxisRotation: -15
  _maxRandomForwardAxisRotation: 15
  _randomizeUpAxisRotation: 0
  _minRandomUpAxisRotation: -15
  _maxRandomUpAxisRotation: 15
  _upAxisOffsetMode: 1
  _upAxisOffset: 0
  _minRandomUpAxisOffset: -0.2
  _maxRandomUpAxisOffset: 0
  _randomizeScale: 1
  _minRandomScale: 0.5
  _maxRandomScale: 1
--- !u!114 &-2433961040590778590
MonoBehaviour:
  m_ObjectHideFlags: 0
  m_CorrespondingSourceObject: {fileID: 0}
  m_PrefabInstance: {fileID: 0}
  m_PrefabAsset: {fileID: 0}
  m_GameObject: {fileID: 0}
  m_Enabled: 1
  m_EditorHideFlags: 0
  m_Script: {fileID: 11500000, guid: 94d5ad21018e4134998ec90780bda311, type: 3}
  m_Name: PP_Rock_Pile_Forest_Moss_10
  m_EditorClassIdentifier: 
  _guid:
    _guidString: ea64f108-8808-408c-bd71-1c148ee1f240
  _pluginPrefab: {fileID: 5361251665610427746, guid: 298c89fb13162fe4aa4fbdb0d6db6bf0,
    type: 2}
  _preview:
    _prefabAsset: {fileID: 7409424919958825713, guid: 3305801e89c72404a989a45bdbad2360,
      type: 3}
    _texture: {fileID: 0}
    _yaw: 0
    _pitch: 0
  _uiSelected: 0
  _used: 1
  _spawnChance: 1
  _alignAxes: 1
  _upAxis: 1
  _invertUpAxis: 0
  _alignUpAxisWhenProjected: 1
  _forwardAxis: 3
  _invertForwardAxis: 0
  _jitterMode: 2
  _jitter: 0.5
  _minRandomJitter: 0
  _maxRandomJitter: 0.5
  _randomizeForwardAxisRotation: 0
  _minRandomForwardAxisRotation: -15
  _maxRandomForwardAxisRotation: 15
  _randomizeUpAxisRotation: 0
  _minRandomUpAxisRotation: -15
  _maxRandomUpAxisRotation: 15
  _upAxisOffsetMode: 1
  _upAxisOffset: 0
  _minRandomUpAxisOffset: -0.2
  _maxRandomUpAxisOffset: 0
  _randomizeScale: 1
  _minRandomScale: 0.5
  _maxRandomScale: 1
--- !u!114 &11400000
MonoBehaviour:
  m_ObjectHideFlags: 0
  m_CorrespondingSourceObject: {fileID: 0}
  m_PrefabInstance: {fileID: 0}
  m_PrefabAsset: {fileID: 0}
  m_GameObject: {fileID: 0}
  m_Enabled: 1
  m_EditorHideFlags: 0
  m_Script: {fileID: 11500000, guid: 8f5a55896da73c44691ba0d346454e63, type: 3}
  m_Name: Rocks
  m_EditorClassIdentifier: 
  _profileName: Rocks
  _prefabs:
  - {fileID: -8072932486934849201}
  - {fileID: -2433961040590778590}
