%YAML 1.1
%TAG !u! tag:unity3d.com,2011:
--- !u!114 &11400000
MonoBehaviour:
  m_ObjectHideFlags: 0
  m_CorrespondingSourceObject: {fileID: 0}
  m_PrefabInstance: {fileID: 0}
  m_PrefabAsset: {fileID: 0}
  m_GameObject: {fileID: 0}
  m_Enabled: 1
  m_EditorHideFlags: 0
  m_Script: {fileID: 11500000, guid: ee558fdd4e20dc04bac5514761a4c0ef, type: 3}
  m_Name: TileRuleProfileDb
  m_EditorClassIdentifier: 
  _profiles:
  - {fileID: 11400000, guid: 5d1e19e9d3c743546a755f9d58ba1225, type: 2}
  _activeProfile: {fileID: 0}
