%YAML 1.1
%TAG !u! tag:unity3d.com,2011:
--- !u!114 &11400000
MonoBehaviour:
  m_ObjectHideFlags: 0
  m_CorrespondingSourceObject: {fileID: 0}
  m_PrefabInstance: {fileID: 0}
  m_PrefabAsset: {fileID: 0}
  m_GameObject: {fileID: 0}
  m_Enabled: 1
  m_EditorHideFlags: 0
  m_Script: {fileID: 11500000, guid: 2dbd6efe55cf40b49a7bb7e3dddd4c48, type: 3}
  m_Name: ModularWallPrefabProfileDbUI
  m_EditorClassIdentifier: 
  _prefabViewStates:
  - {fileID: -1933928809602014577, guid: 9639cc09808ab3d4b95f5acdcd3f6f2f, type: 2}
  - {fileID: 3275001832183353128, guid: 9639cc09808ab3d4b95f5acdcd3f6f2f, type: 2}
  - {fileID: 6909203754437699571, guid: 9639cc09808ab3d4b95f5acdcd3f6f2f, type: 2}
  _ruleUIContainerWidth: 300
  _prefabPreviewScale: 0.5
  _ruleUIScrollOffset: {x: 0, y: 0}
  _prefabSettingsScrollPos: {x: 0, y: 0}
