%YAML 1.1
%TAG !u! tag:unity3d.com,2011:
--- !u!114 &11400000
MonoBehaviour:
  m_ObjectHideFlags: 0
  m_CorrespondingSourceObject: {fileID: 0}
  m_PrefabInstance: {fileID: 0}
  m_PrefabAsset: {fileID: 0}
  m_GameObject: {fileID: 0}
  m_Enabled: 1
  m_EditorHideFlags: 0
  m_Script: {fileID: 11500000, guid: 26d6c3682f0138146ae3f27d2c38072a, type: 3}
  m_Name: PrefabLibProfileDbUI
  m_EditorClassIdentifier: 
  _libViewState: {fileID: 9208489559430918486, guid: 7d9bc8283add433488514865733dc6cc,
    type: 2}
