%YAML 1.1
%TAG !u! tag:unity3d.com,2011:
--- !u!114 &-7922269043996697142
MonoBehaviour:
  m_ObjectHideFlags: 0
  m_CorrespondingSourceObject: {fileID: 0}
  m_PrefabInstance: {fileID: 0}
  m_PrefabAsset: {fileID: 0}
  m_GameObject: {fileID: 0}
  m_Enabled: 1
  m_EditorHideFlags: 0
  m_Script: {fileID: 11500000, guid: 9c5b5af5107e35a43818d5411328bfc3, type: 3}
  m_Name: DPadInteraction Android
  m_EditorClassIdentifier: 
  m_enabled: 0
  nameUi: D-Pad Binding
  version: 0.0.1
  featureIdInternal: com.unity.openxr.feature.input.dpadinteraction
  openxrExtensionStrings: XR_KHR_binding_modification XR_EXT_dpad_binding
  company: Unity
  priority: 0
  required: 0
  forceThresholdLeft: 0.5
  forceThresholdReleaseLeft: 0.4
  centerRegionLeft: 0.5
  wedgeAngleLeft: 1.5707964
  isStickyLeft: 0
  forceThresholdRight: 0.5
  forceThresholdReleaseRight: 0.4
  centerRegionRight: 0.5
  wedgeAngleRight: 1.5707964
  isStickyRight: 0
  extensionStrings:
  - XR_KHR_binding_modification
  - XR_EXT_dpad_binding
--- !u!114 &-7735653696170995546
MonoBehaviour:
  m_ObjectHideFlags: 0
  m_CorrespondingSourceObject: {fileID: 0}
  m_PrefabInstance: {fileID: 0}
  m_PrefabAsset: {fileID: 0}
  m_GameObject: {fileID: 0}
  m_Enabled: 1
  m_EditorHideFlags: 0
  m_Script: {fileID: 11500000, guid: 056125dd64c0ed540b40a4af74f7b495, type: 3}
  m_Name: RuntimeDebuggerOpenXRFeature Android
  m_EditorClassIdentifier: 
  m_enabled: 0
  nameUi: Runtime Debugger
  version: 1
  featureIdInternal: com.unity.openxr.features.runtimedebugger
  openxrExtensionStrings: 
  company: Unity
  priority: 0
  required: 0
  cacheSize: 1048576
  perThreadCacheSize: 51200
--- !u!114 &-7631271183681546413
MonoBehaviour:
  m_ObjectHideFlags: 0
  m_CorrespondingSourceObject: {fileID: 0}
  m_PrefabInstance: {fileID: 0}
  m_PrefabAsset: {fileID: 0}
  m_GameObject: {fileID: 0}
  m_Enabled: 1
  m_EditorHideFlags: 0
  m_Script: {fileID: 11500000, guid: 9c5b5af5107e35a43818d5411328bfc3, type: 3}
  m_Name: DPadInteraction Android
  m_EditorClassIdentifier: 
  m_enabled: 0
  nameUi: D-Pad Binding
  version: 0.0.1
  featureIdInternal: com.unity.openxr.feature.input.dpadinteraction
  openxrExtensionStrings: XR_KHR_binding_modification XR_EXT_dpad_binding
  company: Unity
  priority: 0
  required: 0
  forceThresholdLeft: 0.5
  forceThresholdReleaseLeft: 0.4
  centerRegionLeft: 0.5
  wedgeAngleLeft: 1.5707964
  isStickyLeft: 0
  forceThresholdRight: 0.5
  forceThresholdReleaseRight: 0.4
  centerRegionRight: 0.5
  wedgeAngleRight: 1.5707964
  isStickyRight: 0
  extensionStrings:
  - XR_KHR_binding_modification
  - XR_EXT_dpad_binding
--- !u!114 &-7087474120113385410
MonoBehaviour:
  m_ObjectHideFlags: 0
  m_CorrespondingSourceObject: {fileID: 0}
  m_PrefabInstance: {fileID: 0}
  m_PrefabAsset: {fileID: 0}
  m_GameObject: {fileID: 0}
  m_Enabled: 1
  m_EditorHideFlags: 0
  m_Script: {fileID: 11500000, guid: b3aced3429e5911458f4da2dac9d0f29, type: 3}
  m_Name: MetaHandTrackingAim Standalone
  m_EditorClassIdentifier: 
  m_enabled: 0
  nameUi: Meta Hand Tracking Aim
  version: 0.0.1
  featureIdInternal: com.unity.openxr.feature.input.metahandtrackingaim
  openxrExtensionStrings: XR_FB_hand_tracking_aim
  company: Unity
  priority: 0
  required: 0
--- !u!114 &-6972551045068313342
MonoBehaviour:
  m_ObjectHideFlags: 0
  m_CorrespondingSourceObject: {fileID: 0}
  m_PrefabInstance: {fileID: 0}
  m_PrefabAsset: {fileID: 0}
  m_GameObject: {fileID: 0}
  m_Enabled: 1
  m_EditorHideFlags: 0
  m_Script: {fileID: 11500000, guid: b5a1f07dc5afe854f9f12a4194aca3fb, type: 3}
  m_Name: Standalone
  m_EditorClassIdentifier: 
  features:
  - {fileID: 4963040286616351577}
  - {fileID: 8290949890395689686}
  - {fileID: 4893829345954421791}
  - {fileID: 6961862986596175772}
  - {fileID: -4964041763884141451}
  - {fileID: 2464461750525747820}
  - {fileID: 7821770213225599522}
  - {fileID: 2497339995422133549}
  - {fileID: -5941725581135416239}
  - {fileID: -7087474120113385410}
  - {fileID: -4819080055246479002}
  - {fileID: 1507748248788215057}
  - {fileID: 7413458854745118488}
  - {fileID: 4054846353496584751}
  - {fileID: 154189092879288027}
  - {fileID: -977681736497465198}
  - {fileID: 2316775424616146661}
  - {fileID: -5611916350011621528}
  m_renderMode: 1
  m_depthSubmissionMode: 0
  m_optimizeBufferDiscards: 0
  m_symmetricProjection: 0
--- !u!114 &-6961906077981707121
MonoBehaviour:
  m_ObjectHideFlags: 0
  m_CorrespondingSourceObject: {fileID: 0}
  m_PrefabInstance: {fileID: 0}
  m_PrefabAsset: {fileID: 0}
  m_GameObject: {fileID: 0}
  m_Enabled: 1
  m_EditorHideFlags: 0
  m_Script: {fileID: 11500000, guid: 2a24be4b5ebfe5f4d8ed1de9b25cb7aa, type: 3}
  m_Name: HandCommonPosesInteraction Android
  m_EditorClassIdentifier: 
  m_enabled: 0
  nameUi: Hand Interaction Poses
  version: 0.0.1
  featureIdInternal: com.unity.openxr.feature.input.handinteractionposes
  openxrExtensionStrings: XR_EXT_hand_interaction
  company: Unity
  priority: 0
  required: 0
--- !u!114 &-6230493477652047365
MonoBehaviour:
  m_ObjectHideFlags: 0
  m_CorrespondingSourceObject: {fileID: 0}
  m_PrefabInstance: {fileID: 0}
  m_PrefabAsset: {fileID: 0}
  m_GameObject: {fileID: 0}
  m_Enabled: 1
  m_EditorHideFlags: 0
  m_Script: {fileID: 11500000, guid: 7de993716e042c6499d0c18eed3a773c, type: 3}
  m_Name: MockRuntime Android
  m_EditorClassIdentifier: 
  m_enabled: 0
  nameUi: Mock Runtime
  version: 0.0.2
  featureIdInternal: com.unity.openxr.feature.mockruntime
  openxrExtensionStrings: XR_UNITY_null_gfx XR_UNITY_android_present
  company: Unity
  priority: 0
  required: 0
  ignoreValidationErrors: 0
--- !u!114 &-5941725581135416239
MonoBehaviour:
  m_ObjectHideFlags: 0
  m_CorrespondingSourceObject: {fileID: 0}
  m_PrefabInstance: {fileID: 0}
  m_PrefabAsset: {fileID: 0}
  m_GameObject: {fileID: 0}
  m_Enabled: 1
  m_EditorHideFlags: 0
  m_Script: {fileID: 11500000, guid: 0f6bfdbcb316ed242b30a8798c9eb853, type: 3}
  m_Name: KHRSimpleControllerProfile Standalone
  m_EditorClassIdentifier: 
  m_enabled: 0
  nameUi: Khronos Simple Controller Profile
  version: 0.0.1
  featureIdInternal: com.unity.openxr.feature.input.khrsimpleprofile
  openxrExtensionStrings: 
  company: Unity
  priority: 0
  required: 0
--- !u!114 &-5742604011993336727
MonoBehaviour:
  m_ObjectHideFlags: 0
  m_CorrespondingSourceObject: {fileID: 0}
  m_PrefabInstance: {fileID: 0}
  m_PrefabAsset: {fileID: 0}
  m_GameObject: {fileID: 0}
  m_Enabled: 1
  m_EditorHideFlags: 0
  m_Script: {fileID: 11500000, guid: 9c5b5af5107e35a43818d5411328bfc3, type: 3}
  m_Name: DPadInteraction Standalone
  m_EditorClassIdentifier: 
  m_enabled: 0
  nameUi: D-Pad Binding
  version: 0.0.1
  featureIdInternal: com.unity.openxr.feature.input.dpadinteraction
  openxrExtensionStrings: XR_KHR_binding_modification XR_EXT_dpad_binding
  company: Unity
  priority: 0
  required: 0
  forceThresholdLeft: 0.5
  forceThresholdReleaseLeft: 0.4
  centerRegionLeft: 0.5
  wedgeAngleLeft: 1.5707964
  isStickyLeft: 0
  forceThresholdRight: 0.5
  forceThresholdReleaseRight: 0.4
  centerRegionRight: 0.5
  wedgeAngleRight: 1.5707964
  isStickyRight: 0
  extensionStrings:
  - XR_KHR_binding_modification
  - XR_EXT_dpad_binding
--- !u!114 &-5611916350011621528
MonoBehaviour:
  m_ObjectHideFlags: 0
  m_CorrespondingSourceObject: {fileID: 0}
  m_PrefabInstance: {fileID: 0}
  m_PrefabAsset: {fileID: 0}
  m_GameObject: {fileID: 0}
  m_Enabled: 1
  m_EditorHideFlags: 0
  m_Script: {fileID: 11500000, guid: 0d6ccd3d0ef0f1d458e69421dccbdae1, type: 3}
  m_Name: ValveIndexControllerProfile Standalone
  m_EditorClassIdentifier: 
  m_enabled: 0
  nameUi: Valve Index Controller Profile
  version: 0.0.1
  featureIdInternal: com.unity.openxr.feature.input.valveindex
  openxrExtensionStrings: 
  company: Unity
  priority: 0
  required: 0
--- !u!114 &-5433211479722575679
MonoBehaviour:
  m_ObjectHideFlags: 0
  m_CorrespondingSourceObject: {fileID: 0}
  m_PrefabInstance: {fileID: 0}
  m_PrefabAsset: {fileID: 0}
  m_GameObject: {fileID: 0}
  m_Enabled: 1
  m_EditorHideFlags: 0
  m_Script: {fileID: 11500000, guid: 5019471fb2174e5c852ecd4047163007, type: 3}
  m_Name: HandInteractionProfile Android
  m_EditorClassIdentifier: 
  m_enabled: 0
  nameUi: Hand Interaction Profile
  version: 0.0.1
  featureIdInternal: com.unity.openxr.feature.input.handinteraction
  openxrExtensionStrings: XR_EXT_hand_interaction
  company: Unity
  priority: 0
  required: 0
--- !u!114 &-5186650523481896039
MonoBehaviour:
  m_ObjectHideFlags: 0
  m_CorrespondingSourceObject: {fileID: 0}
  m_PrefabInstance: {fileID: 0}
  m_PrefabAsset: {fileID: 0}
  m_GameObject: {fileID: 0}
  m_Enabled: 1
  m_EditorHideFlags: 0
  m_Script: {fileID: 11500000, guid: b5a1f07dc5afe854f9f12a4194aca3fb, type: 3}
  m_Name: WebGL
  m_EditorClassIdentifier: 
  features: []
  m_renderMode: 1
  m_depthSubmissionMode: 0
  m_optimizeBufferDiscards: 0
  m_symmetricProjection: 0
--- !u!114 &-4964041763884141451
MonoBehaviour:
  m_ObjectHideFlags: 0
  m_CorrespondingSourceObject: {fileID: 0}
  m_PrefabInstance: {fileID: 0}
  m_PrefabAsset: {fileID: 0}
  m_GameObject: {fileID: 0}
  m_Enabled: 1
  m_EditorHideFlags: 0
  m_Script: {fileID: 11500000, guid: 5019471fb2174e5c852ecd4047163007, type: 3}
  m_Name: HandInteractionProfile Standalone
  m_EditorClassIdentifier: 
  m_enabled: 0
  nameUi: Hand Interaction Profile
  version: 0.0.1
  featureIdInternal: com.unity.openxr.feature.input.handinteraction
  openxrExtensionStrings: XR_EXT_hand_interaction
  company: Unity
  priority: 0
  required: 0
--- !u!114 &-4819080055246479002
MonoBehaviour:
  m_ObjectHideFlags: 0
  m_CorrespondingSourceObject: {fileID: 0}
  m_PrefabInstance: {fileID: 0}
  m_PrefabAsset: {fileID: 0}
  m_GameObject: {fileID: 0}
  m_Enabled: 1
  m_EditorHideFlags: 0
  m_Script: {fileID: 11500000, guid: c4b862ee14fb479fbfe5fffe655d3ed3, type: 3}
  m_Name: MetaQuestTouchProControllerProfile Standalone
  m_EditorClassIdentifier: 
  m_enabled: 0
  nameUi: Meta Quest Touch Pro Controller Profile
  version: 0.0.1
  featureIdInternal: com.unity.openxr.feature.input.metaquestpro
  openxrExtensionStrings: XR_FB_touch_controller_pro
  company: Unity
  priority: 0
  required: 0
--- !u!114 &-4736799239074692127
MonoBehaviour:
  m_ObjectHideFlags: 0
  m_CorrespondingSourceObject: {fileID: 0}
  m_PrefabInstance: {fileID: 0}
  m_PrefabAsset: {fileID: 0}
  m_GameObject: {fileID: 0}
  m_Enabled: 1
  m_EditorHideFlags: 0
  m_Script: {fileID: 11500000, guid: 9ef793c31862a37448e907829482ef80, type: 3}
  m_Name: OculusQuestFeature Android
  m_EditorClassIdentifier: 
  m_enabled: 0
  nameUi: Oculus Quest Support
  version: 1.0.0
  featureIdInternal: com.unity.openxr.feature.oculusquest
  openxrExtensionStrings: XR_OCULUS_android_initialize_loader
  company: Unity
  priority: 0
  required: 0
  targetQuest: 1
  targetQuest2: 1
--- !u!114 &-3985981868152839637
MonoBehaviour:
  m_ObjectHideFlags: 0
  m_CorrespondingSourceObject: {fileID: 0}
  m_PrefabInstance: {fileID: 0}
  m_PrefabAsset: {fileID: 0}
  m_GameObject: {fileID: 0}
  m_Enabled: 1
  m_EditorHideFlags: 0
  m_Script: {fileID: 11500000, guid: 7de993716e042c6499d0c18eed3a773c, type: 3}
  m_Name: MockRuntime Android
  m_EditorClassIdentifier: 
  m_enabled: 0
  nameUi: Mock Runtime
  version: 0.0.2
  featureIdInternal: com.unity.openxr.feature.mockruntime
  openxrExtensionStrings: XR_UNITY_null_gfx XR_UNITY_android_present
  company: Unity
  priority: 0
  required: 0
  ignoreValidationErrors: 0
--- !u!114 &-3241076227232720667
MonoBehaviour:
  m_ObjectHideFlags: 0
  m_CorrespondingSourceObject: {fileID: 0}
  m_PrefabInstance: {fileID: 0}
  m_PrefabAsset: {fileID: 0}
  m_GameObject: {fileID: 0}
  m_Enabled: 1
  m_EditorHideFlags: 0
  m_Script: {fileID: 11500000, guid: f028123e2efe1d443875bc7609b4a98b, type: 3}
  m_Name: PalmPoseInteraction Standalone
  m_EditorClassIdentifier: 
  m_enabled: 0
  nameUi: Palm Pose
  version: 0.0.1
  featureIdInternal: com.unity.openxr.feature.input.palmpose
  openxrExtensionStrings: XR_EXT_palm_pose
  company: Unity
  priority: 0
  required: 0
--- !u!114 &-977681736497465198
MonoBehaviour:
  m_ObjectHideFlags: 0
  m_CorrespondingSourceObject: {fileID: 0}
  m_PrefabInstance: {fileID: 0}
  m_PrefabAsset: {fileID: 0}
  m_GameObject: {fileID: 0}
  m_Enabled: 1
  m_EditorHideFlags: 0
  m_Script: {fileID: 11500000, guid: f028123e2efe1d443875bc7609b4a98b, type: 3}
  m_Name: PalmPoseInteraction Standalone
  m_EditorClassIdentifier: 
  m_enabled: 0
  nameUi: Palm Pose
  version: 0.0.1
  featureIdInternal: com.unity.openxr.feature.input.palmpose
  openxrExtensionStrings: XR_EXT_palm_pose
  company: Unity
  priority: 0
  required: 0
--- !u!114 &-725664078227836080
MonoBehaviour:
  m_ObjectHideFlags: 0
  m_CorrespondingSourceObject: {fileID: 0}
  m_PrefabInstance: {fileID: 0}
  m_PrefabAsset: {fileID: 0}
  m_GameObject: {fileID: 0}
  m_Enabled: 1
  m_EditorHideFlags: 0
  m_Script: {fileID: 11500000, guid: f928d0d73a35f294fbe357ca17aa3547, type: 3}
  m_Name: MicrosoftHandInteraction Android
  m_EditorClassIdentifier: 
  m_enabled: 0
  nameUi: Microsoft Hand Interaction Profile
  version: 0.0.1
  featureIdInternal: com.unity.openxr.feature.input.handtracking
  openxrExtensionStrings: XR_MSFT_hand_interaction
  company: Unity
  priority: 0
  required: 0
--- !u!114 &11400000
MonoBehaviour:
  m_ObjectHideFlags: 0
  m_CorrespondingSourceObject: {fileID: 0}
  m_PrefabInstance: {fileID: 0}
  m_PrefabAsset: {fileID: 0}
  m_GameObject: {fileID: 0}
  m_Enabled: 1
  m_EditorHideFlags: 0
  m_Script: {fileID: 11500000, guid: 9f0ebc320a151d3408ea1e9fce54d40e, type: 3}
  m_Name: Open XR Package Settings
  m_EditorClassIdentifier: 
  Keys: 010000000d00000007000000
  Values:
  - {fileID: -6972551045068313342}
  - {fileID: -5186650523481896039}
  - {fileID: 499655500622059912}
--- !u!114 &154189092879288027
MonoBehaviour:
  m_ObjectHideFlags: 0
  m_CorrespondingSourceObject: {fileID: 0}
  m_PrefabInstance: {fileID: 0}
  m_PrefabAsset: {fileID: 0}
  m_GameObject: {fileID: 0}
  m_Enabled: 1
  m_EditorHideFlags: 0
  m_Script: {fileID: 11500000, guid: feeef8d85de8db242bdda70cc7ff5acd, type: 3}
  m_Name: OculusTouchControllerProfile Standalone
  m_EditorClassIdentifier: 
  m_enabled: 1
  nameUi: Oculus Touch Controller Profile
  version: 0.0.1
  featureIdInternal: com.unity.openxr.feature.input.oculustouch
  openxrExtensionStrings: 
  company: Unity
  priority: 0
  required: 0
--- !u!114 &280200729273152953
MonoBehaviour:
  m_ObjectHideFlags: 0
  m_CorrespondingSourceObject: {fileID: 0}
  m_PrefabInstance: {fileID: 0}
  m_PrefabAsset: {fileID: 0}
  m_GameObject: {fileID: 0}
  m_Enabled: 1
  m_EditorHideFlags: 0
  m_Script: {fileID: 11500000, guid: 0f6bfdbcb316ed242b30a8798c9eb853, type: 3}
  m_Name: KHRSimpleControllerProfile Android
  m_EditorClassIdentifier: 
  m_enabled: 0
  nameUi: Khronos Simple Controller Profile
  version: 0.0.1
  featureIdInternal: com.unity.openxr.feature.input.khrsimpleprofile
  openxrExtensionStrings: 
  company: Unity
  priority: 0
  required: 0
--- !u!114 &368798257634853573
MonoBehaviour:
  m_ObjectHideFlags: 0
  m_CorrespondingSourceObject: {fileID: 0}
  m_PrefabInstance: {fileID: 0}
  m_PrefabAsset: {fileID: 0}
  m_GameObject: {fileID: 0}
  m_Enabled: 1
  m_EditorHideFlags: 0
  m_Script: {fileID: 11500000, guid: c4b862ee14fb479fbfe5fffe655d3ed3, type: 3}
  m_Name: MetaQuestTouchProControllerProfile Android
  m_EditorClassIdentifier: 
  m_enabled: 0
  nameUi: Meta Quest Touch Pro Controller Profile
  version: 0.0.1
  featureIdInternal: com.unity.openxr.feature.input.metaquestpro
  openxrExtensionStrings: XR_FB_touch_controller_pro
  company: Unity
  priority: 0
  required: 0
--- !u!114 &499655500622059912
MonoBehaviour:
  m_ObjectHideFlags: 0
  m_CorrespondingSourceObject: {fileID: 0}
  m_PrefabInstance: {fileID: 0}
  m_PrefabAsset: {fileID: 0}
  m_GameObject: {fileID: 0}
  m_Enabled: 1
  m_EditorHideFlags: 0
  m_Script: {fileID: 11500000, guid: b5a1f07dc5afe854f9f12a4194aca3fb, type: 3}
  m_Name: Android
  m_EditorClassIdentifier: 
  features:
  - {fileID: 4563534549753976502}
  - {fileID: -7631271183681546413}
  - {fileID: 6965720285833922867}
  - {fileID: 7417673118305748135}
  - {fileID: 3608817322301453822}
  - {fileID: 8089605680725991186}
  - {fileID: 280200729273152953}
  - {fileID: 8303834981599960747}
  - {fileID: 4578982683306384418}
  - {fileID: 368798257634853573}
  - {fileID: -725664078227836080}
  - {fileID: -3985981868152839637}
  - {fileID: -4736799239074692127}
  - {fileID: 2593999601097589042}
  - {fileID: 7051386497120379690}
  - {fileID: -7735653696170995546}
  m_renderMode: 1
  m_depthSubmissionMode: 0
  m_optimizeBufferDiscards: 0
  m_symmetricProjection: 0
--- !u!114 &1507748248788215057
MonoBehaviour:
  m_ObjectHideFlags: 0
  m_CorrespondingSourceObject: {fileID: 0}
  m_PrefabInstance: {fileID: 0}
  m_PrefabAsset: {fileID: 0}
  m_GameObject: {fileID: 0}
  m_Enabled: 1
  m_EditorHideFlags: 0
  m_Script: {fileID: 11500000, guid: f928d0d73a35f294fbe357ca17aa3547, type: 3}
  m_Name: MicrosoftHandInteraction Standalone
  m_EditorClassIdentifier: 
  m_enabled: 0
  nameUi: Microsoft Hand Interaction Profile
  version: 0.0.1
  featureIdInternal: com.unity.openxr.feature.input.handtracking
  openxrExtensionStrings: XR_MSFT_hand_interaction
  company: Unity
  priority: 0
  required: 0
--- !u!114 &2316775424616146661
MonoBehaviour:
  m_ObjectHideFlags: 0
  m_CorrespondingSourceObject: {fileID: 0}
  m_PrefabInstance: {fileID: 0}
  m_PrefabAsset: {fileID: 0}
  m_GameObject: {fileID: 0}
  m_Enabled: 1
  m_EditorHideFlags: 0
  m_Script: {fileID: 11500000, guid: 056125dd64c0ed540b40a4af74f7b495, type: 3}
  m_Name: RuntimeDebuggerOpenXRFeature Standalone
  m_EditorClassIdentifier: 
  m_enabled: 0
  nameUi: Runtime Debugger
  version: 1
  featureIdInternal: com.unity.openxr.features.runtimedebugger
  openxrExtensionStrings: 
  company: Unity
  priority: 0
  required: 0
  cacheSize: 1048576
  perThreadCacheSize: 51200
--- !u!114 &2464461750525747820
MonoBehaviour:
  m_ObjectHideFlags: 0
  m_CorrespondingSourceObject: {fileID: 0}
  m_PrefabInstance: {fileID: 0}
  m_PrefabAsset: {fileID: 0}
  m_GameObject: {fileID: 0}
  m_Enabled: 1
  m_EditorHideFlags: 0
  m_Script: {fileID: 11500000, guid: 4e314dfef9af0904e80129bcc0a79361, type: 3}
  m_Name: HandTracking Standalone
  m_EditorClassIdentifier: 
  m_enabled: 0
  nameUi: Hand Tracking Subsystem
  version: 0.0.1
  featureIdInternal: com.unity.openxr.feature.input.handtracking
  openxrExtensionStrings: XR_EXT_hand_tracking
  company: Unity
  priority: -100
  required: 0
--- !u!114 &2497339995422133549
MonoBehaviour:
  m_ObjectHideFlags: 0
  m_CorrespondingSourceObject: {fileID: 0}
  m_PrefabInstance: {fileID: 0}
  m_PrefabAsset: {fileID: 0}
  m_GameObject: {fileID: 0}
  m_Enabled: 1
  m_EditorHideFlags: 0
  m_Script: {fileID: 11500000, guid: 274c02963f889a64e90bc2e596e21d13, type: 3}
  m_Name: HTCViveControllerProfile Standalone
  m_EditorClassIdentifier: 
  m_enabled: 0
  nameUi: HTC Vive Controller Profile
  version: 0.0.1
  featureIdInternal: com.unity.openxr.feature.input.htcvive
  openxrExtensionStrings: 
  company: Unity
  priority: 0
  required: 0
--- !u!114 &2593999601097589042
MonoBehaviour:
  m_ObjectHideFlags: 0
  m_CorrespondingSourceObject: {fileID: 0}
  m_PrefabInstance: {fileID: 0}
  m_PrefabAsset: {fileID: 0}
  m_GameObject: {fileID: 0}
  m_Enabled: 1
  m_EditorHideFlags: 0
  m_Script: {fileID: 11500000, guid: feeef8d85de8db242bdda70cc7ff5acd, type: 3}
  m_Name: OculusTouchControllerProfile Android
  m_EditorClassIdentifier: 
  m_enabled: 1
  nameUi: Oculus Touch Controller Profile
  version: 0.0.1
  featureIdInternal: com.unity.openxr.feature.input.oculustouch
  openxrExtensionStrings: 
  company: Unity
  priority: 0
  required: 0
--- !u!114 &2978627283927838096
MonoBehaviour:
  m_ObjectHideFlags: 0
  m_CorrespondingSourceObject: {fileID: 0}
  m_PrefabInstance: {fileID: 0}
  m_PrefabAsset: {fileID: 0}
  m_GameObject: {fileID: 0}
  m_Enabled: 1
  m_EditorHideFlags: 0
  m_Script: {fileID: 11500000, guid: 5019471fb2174e5c852ecd4047163007, type: 3}
  m_Name: HandInteractionProfile Standalone
  m_EditorClassIdentifier: 
  m_enabled: 0
  nameUi: Hand Interaction Profile
  version: 0.0.1
  featureIdInternal: com.unity.openxr.feature.input.handinteraction
  openxrExtensionStrings: XR_EXT_hand_interaction
  company: Unity
  priority: 0
  required: 0
--- !u!114 &3125381194089690783
MonoBehaviour:
  m_ObjectHideFlags: 0
  m_CorrespondingSourceObject: {fileID: 0}
  m_PrefabInstance: {fileID: 0}
  m_PrefabAsset: {fileID: 0}
  m_GameObject: {fileID: 0}
  m_Enabled: 1
  m_EditorHideFlags: 0
  m_Script: {fileID: 11500000, guid: 96efa89124dda0941802f28ad8249b87, type: 3}
  m_Name: MockDriver Standalone
  m_EditorClassIdentifier: 
  m_enabled: 0
  nameUi: Mock Driver
  version: 0.0.1
  featureIdInternal: com.unity.openxr.feature.mockdriver
  openxrExtensionStrings: XR_UNITY_mock_driver
  company: Unity
  priority: 0
  required: 0
--- !u!114 &3608817322301453822
MonoBehaviour:
  m_ObjectHideFlags: 0
  m_CorrespondingSourceObject: {fileID: 0}
  m_PrefabInstance: {fileID: 0}
  m_PrefabAsset: {fileID: 0}
  m_GameObject: {fileID: 0}
  m_Enabled: 1
  m_EditorHideFlags: 0
  m_Script: {fileID: 11500000, guid: 5019471fb2174e5c852ecd4047163007, type: 3}
  m_Name: HandInteractionProfile Android
  m_EditorClassIdentifier: 
  m_enabled: 0
  nameUi: Hand Interaction Profile
  version: 0.0.1
  featureIdInternal: com.unity.openxr.feature.input.handinteraction
  openxrExtensionStrings: XR_EXT_hand_interaction
  company: Unity
  priority: 0
  required: 0
--- !u!114 &4054846353496584751
MonoBehaviour:
  m_ObjectHideFlags: 0
  m_CorrespondingSourceObject: {fileID: 0}
  m_PrefabInstance: {fileID: 0}
  m_PrefabAsset: {fileID: 0}
  m_GameObject: {fileID: 0}
  m_Enabled: 1
  m_EditorHideFlags: 0
  m_Script: {fileID: 11500000, guid: 7de993716e042c6499d0c18eed3a773c, type: 3}
  m_Name: MockRuntime Standalone
  m_EditorClassIdentifier: 
  m_enabled: 0
  nameUi: Mock Runtime
  version: 0.0.2
  featureIdInternal: com.unity.openxr.feature.mockruntime
  openxrExtensionStrings: XR_UNITY_null_gfx XR_UNITY_android_present
  company: Unity
  priority: 0
  required: 0
  ignoreValidationErrors: 0
--- !u!114 &4055797521810450136
MonoBehaviour:
  m_ObjectHideFlags: 0
  m_CorrespondingSourceObject: {fileID: 0}
  m_PrefabInstance: {fileID: 0}
  m_PrefabAsset: {fileID: 0}
  m_GameObject: {fileID: 0}
  m_Enabled: 1
  m_EditorHideFlags: 0
  m_Script: {fileID: 11500000, guid: e5315f812f023cf4ebf26f7e5d2d70f2, type: 3}
  m_Name: HPReverbG2ControllerProfile Standalone
  m_EditorClassIdentifier: 
  m_enabled: 0
  nameUi: HP Reverb G2 Controller Profile
  version: 0.0.1
  featureIdInternal: com.unity.openxr.feature.input.hpreverb
  openxrExtensionStrings: XR_EXT_hp_mixed_reality_controller
  company: Unity
  priority: 0
  required: 0
--- !u!114 &4563534549753976502
MonoBehaviour:
  m_ObjectHideFlags: 0
  m_CorrespondingSourceObject: {fileID: 0}
  m_PrefabInstance: {fileID: 0}
  m_PrefabAsset: {fileID: 0}
  m_GameObject: {fileID: 0}
  m_Enabled: 1
  m_EditorHideFlags: 0
  m_Script: {fileID: 11500000, guid: 486b5e28864f9a94b979b9620ce5006d, type: 3}
  m_Name: ConformanceAutomationFeature Android
  m_EditorClassIdentifier: 
  m_enabled: 0
  nameUi: Conformance Automation
  version: 0.0.1
  featureIdInternal: com.unity.openxr.feature.conformance
  openxrExtensionStrings: XR_EXT_conformance_automation
  company: Unity
  priority: 0
  required: 0
--- !u!114 &4578982683306384418
MonoBehaviour:
  m_ObjectHideFlags: 0
  m_CorrespondingSourceObject: {fileID: 0}
  m_PrefabInstance: {fileID: 0}
  m_PrefabAsset: {fileID: 0}
  m_GameObject: {fileID: 0}
  m_Enabled: 1
  m_EditorHideFlags: 0
  m_Script: {fileID: 11500000, guid: f647cc0545697264a9878224faada6d5, type: 3}
  m_Name: MetaQuestFeature Android
  m_EditorClassIdentifier: 
  m_enabled: 0
  nameUi: Meta Quest Support
  version: 1.0.0
  featureIdInternal: com.unity.openxr.feature.metaquest
  openxrExtensionStrings: XR_OCULUS_android_initialize_loader
  company: Unity
  priority: 0
  required: 0
  targetDevices:
  - visibleName: Quest
    manifestName: quest
    enabled: 1
  - visibleName: Quest 2
    manifestName: quest2
    enabled: 1
  - visibleName: Quest Pro
    manifestName: cambria
    enabled: 1
  forceRemoveInternetPermission: 0
  symmetricProjection: 0
  systemSplashScreen: {fileID: 0}
  optimizeBufferDiscards: 1
  lateLatchingMode: 0
  lateLatchingDebug: 0
--- !u!114 &4639683456783209763
MonoBehaviour:
  m_ObjectHideFlags: 0
  m_CorrespondingSourceObject: {fileID: 0}
  m_PrefabInstance: {fileID: 0}
  m_PrefabAsset: {fileID: 0}
  m_GameObject: {fileID: 0}
  m_Enabled: 1
  m_EditorHideFlags: 0
  m_Script: {fileID: 11500000, guid: f647cc0545697264a9878224faada6d5, type: 3}
  m_Name: MetaQuestFeature Android
  m_EditorClassIdentifier: 
  m_enabled: 0
  nameUi: Meta Quest Support
  version: 1.0.0
  featureIdInternal: com.unity.openxr.feature.metaquest
  openxrExtensionStrings: XR_OCULUS_android_initialize_loader
  company: Unity
  priority: 0
  required: 0
  targetDevices:
  - visibleName: Quest
    manifestName: quest
    enabled: 1
  - visibleName: Quest 2
    manifestName: quest2
    enabled: 1
  - visibleName: Quest Pro
    manifestName: cambria
    enabled: 1
  forceRemoveInternetPermission: 0
  symmetricProjection: 0
  systemSplashScreen: {fileID: 0}
  optimizeBufferDiscards: 1
  lateLatchingMode: 0
  lateLatchingDebug: 0
--- !u!114 &4893829345954421791
MonoBehaviour:
  m_ObjectHideFlags: 0
  m_CorrespondingSourceObject: {fileID: 0}
  m_PrefabInstance: {fileID: 0}
  m_PrefabAsset: {fileID: 0}
  m_GameObject: {fileID: 0}
  m_Enabled: 1
  m_EditorHideFlags: 0
  m_Script: {fileID: 11500000, guid: b3cf79659a011bd419c7a2a30eb74e9a, type: 3}
  m_Name: EyeGazeInteraction Standalone
  m_EditorClassIdentifier: 
  m_enabled: 0
  nameUi: Eye Gaze Interaction Profile
  version: 0.0.1
  featureIdInternal: com.unity.openxr.feature.input.eyetracking
  openxrExtensionStrings: XR_EXT_eye_gaze_interaction
  company: Unity
  priority: 0
  required: 0
--- !u!114 &4963040286616351577
MonoBehaviour:
  m_ObjectHideFlags: 0
  m_CorrespondingSourceObject: {fileID: 0}
  m_PrefabInstance: {fileID: 0}
  m_PrefabAsset: {fileID: 0}
  m_GameObject: {fileID: 0}
  m_Enabled: 1
  m_EditorHideFlags: 0
  m_Script: {fileID: 11500000, guid: 486b5e28864f9a94b979b9620ce5006d, type: 3}
  m_Name: ConformanceAutomationFeature Standalone
  m_EditorClassIdentifier: 
  m_enabled: 0
  nameUi: Conformance Automation
  version: 0.0.1
  featureIdInternal: com.unity.openxr.feature.conformance
  openxrExtensionStrings: XR_EXT_conformance_automation
  company: Unity
  priority: 0
  required: 0
--- !u!114 &6961862986596175772
MonoBehaviour:
  m_ObjectHideFlags: 0
  m_CorrespondingSourceObject: {fileID: 0}
  m_PrefabInstance: {fileID: 0}
  m_PrefabAsset: {fileID: 0}
  m_GameObject: {fileID: 0}
  m_Enabled: 1
  m_EditorHideFlags: 0
  m_Script: {fileID: 11500000, guid: 2a24be4b5ebfe5f4d8ed1de9b25cb7aa, type: 3}
  m_Name: HandCommonPosesInteraction Standalone
  m_EditorClassIdentifier: 
  m_enabled: 0
  nameUi: Hand Interaction Poses
  version: 0.0.1
  featureIdInternal: com.unity.openxr.feature.input.handinteractionposes
  openxrExtensionStrings: XR_EXT_hand_interaction
  company: Unity
  priority: 0
  required: 0
--- !u!114 &6965720285833922867
MonoBehaviour:
  m_ObjectHideFlags: 0
  m_CorrespondingSourceObject: {fileID: 0}
  m_PrefabInstance: {fileID: 0}
  m_PrefabAsset: {fileID: 0}
  m_GameObject: {fileID: 0}
  m_Enabled: 1
  m_EditorHideFlags: 0
  m_Script: {fileID: 11500000, guid: b3cf79659a011bd419c7a2a30eb74e9a, type: 3}
  m_Name: EyeGazeInteraction Android
  m_EditorClassIdentifier: 
  m_enabled: 0
  nameUi: Eye Gaze Interaction Profile
  version: 0.0.1
  featureIdInternal: com.unity.openxr.feature.input.eyetracking
  openxrExtensionStrings: XR_EXT_eye_gaze_interaction
  company: Unity
  priority: 0
  required: 0
--- !u!114 &7051386497120379690
MonoBehaviour:
  m_ObjectHideFlags: 0
  m_CorrespondingSourceObject: {fileID: 0}
  m_PrefabInstance: {fileID: 0}
  m_PrefabAsset: {fileID: 0}
  m_GameObject: {fileID: 0}
  m_Enabled: 1
  m_EditorHideFlags: 0
  m_Script: {fileID: 11500000, guid: f028123e2efe1d443875bc7609b4a98b, type: 3}
  m_Name: PalmPoseInteraction Android
  m_EditorClassIdentifier: 
  m_enabled: 0
  nameUi: Palm Pose
  version: 0.0.1
  featureIdInternal: com.unity.openxr.feature.input.palmpose
  openxrExtensionStrings: XR_EXT_palm_pose
  company: Unity
  priority: 0
  required: 0
--- !u!114 &7413458854745118488
MonoBehaviour:
  m_ObjectHideFlags: 0
  m_CorrespondingSourceObject: {fileID: 0}
  m_PrefabInstance: {fileID: 0}
  m_PrefabAsset: {fileID: 0}
  m_GameObject: {fileID: 0}
  m_Enabled: 1
  m_EditorHideFlags: 0
  m_Script: {fileID: 11500000, guid: 761fdd4502cb7a84e9ec7a2b24f33f37, type: 3}
  m_Name: MicrosoftMotionControllerProfile Standalone
  m_EditorClassIdentifier: 
  m_enabled: 0
  nameUi: Microsoft Motion Controller Profile
  version: 0.0.1
  featureIdInternal: com.unity.openxr.feature.input.microsoftmotioncontroller
  openxrExtensionStrings: 
  company: Unity
  priority: 0
  required: 0
--- !u!114 &7417673118305748135
MonoBehaviour:
  m_ObjectHideFlags: 0
  m_CorrespondingSourceObject: {fileID: 0}
  m_PrefabInstance: {fileID: 0}
  m_PrefabAsset: {fileID: 0}
  m_GameObject: {fileID: 0}
  m_Enabled: 1
  m_EditorHideFlags: 0
  m_Script: {fileID: 11500000, guid: 2a24be4b5ebfe5f4d8ed1de9b25cb7aa, type: 3}
  m_Name: HandCommonPosesInteraction Android
  m_EditorClassIdentifier: 
  m_enabled: 0
  nameUi: Hand Interaction Poses
  version: 0.0.1
  featureIdInternal: com.unity.openxr.feature.input.handinteractionposes
  openxrExtensionStrings: XR_EXT_hand_interaction
  company: Unity
  priority: 0
  required: 0
--- !u!114 &7678274541765399831
MonoBehaviour:
  m_ObjectHideFlags: 0
  m_CorrespondingSourceObject: {fileID: 0}
  m_PrefabInstance: {fileID: 0}
  m_PrefabAsset: {fileID: 0}
  m_GameObject: {fileID: 0}
  m_Enabled: 1
  m_EditorHideFlags: 0
  m_Script: {fileID: 11500000, guid: c4b862ee14fb479fbfe5fffe655d3ed3, type: 3}
  m_Name: MetaQuestTouchProControllerProfile Android
  m_EditorClassIdentifier: 
  m_enabled: 0
  nameUi: Meta Quest Touch Pro Controller Profile
  version: 0.0.1
  featureIdInternal: com.unity.openxr.feature.input.metaquestpro
  openxrExtensionStrings: XR_FB_touch_controller_pro
  company: Unity
  priority: 0
  required: 0
--- !u!114 &7800094531791512960
MonoBehaviour:
  m_ObjectHideFlags: 0
  m_CorrespondingSourceObject: {fileID: 0}
  m_PrefabInstance: {fileID: 0}
  m_PrefabAsset: {fileID: 0}
  m_GameObject: {fileID: 0}
  m_Enabled: 1
  m_EditorHideFlags: 0
  m_Script: {fileID: 11500000, guid: f028123e2efe1d443875bc7609b4a98b, type: 3}
  m_Name: PalmPoseInteraction Android
  m_EditorClassIdentifier: 
  m_enabled: 0
  nameUi: Palm Pose
  version: 0.0.1
  featureIdInternal: com.unity.openxr.feature.input.palmpose
  openxrExtensionStrings: XR_EXT_palm_pose
  company: Unity
  priority: 0
  required: 0
--- !u!114 &7821770213225599522
MonoBehaviour:
  m_ObjectHideFlags: 0
  m_CorrespondingSourceObject: {fileID: 0}
  m_PrefabInstance: {fileID: 0}
  m_PrefabAsset: {fileID: 0}
  m_GameObject: {fileID: 0}
  m_Enabled: 1
  m_EditorHideFlags: 0
  m_Script: {fileID: 11500000, guid: e5315f812f023cf4ebf26f7e5d2d70f2, type: 3}
  m_Name: HPReverbG2ControllerProfile Standalone
  m_EditorClassIdentifier: 
  m_enabled: 0
  nameUi: HP Reverb G2 Controller Profile
  version: 0.0.1
  featureIdInternal: com.unity.openxr.feature.input.hpreverb
  openxrExtensionStrings: XR_EXT_hp_mixed_reality_controller
  company: Unity
  priority: 0
  required: 0
--- !u!114 &7968879804954400275
MonoBehaviour:
  m_ObjectHideFlags: 0
  m_CorrespondingSourceObject: {fileID: 0}
  m_PrefabInstance: {fileID: 0}
  m_PrefabAsset: {fileID: 0}
  m_GameObject: {fileID: 0}
  m_Enabled: 1
  m_EditorHideFlags: 0
  m_Script: {fileID: 11500000, guid: 2a24be4b5ebfe5f4d8ed1de9b25cb7aa, type: 3}
  m_Name: HandCommonPosesInteraction Standalone
  m_EditorClassIdentifier: 
  m_enabled: 0
  nameUi: Hand Interaction Poses
  version: 0.0.1
  featureIdInternal: com.unity.openxr.feature.input.handinteractionposes
  openxrExtensionStrings: XR_EXT_hand_interaction
  company: Unity
  priority: 0
  required: 0
--- !u!114 &8089605680725991186
MonoBehaviour:
  m_ObjectHideFlags: 0
  m_CorrespondingSourceObject: {fileID: 0}
  m_PrefabInstance: {fileID: 0}
  m_PrefabAsset: {fileID: 0}
  m_GameObject: {fileID: 0}
  m_Enabled: 1
  m_EditorHideFlags: 0
  m_Script: {fileID: 11500000, guid: 4e314dfef9af0904e80129bcc0a79361, type: 3}
  m_Name: HandTracking Android
  m_EditorClassIdentifier: 
  m_enabled: 0
  nameUi: Hand Tracking Subsystem
  version: 0.0.1
  featureIdInternal: com.unity.openxr.feature.input.handtracking
  openxrExtensionStrings: XR_EXT_hand_tracking
  company: Unity
  priority: -100
  required: 0
--- !u!114 &8290949890395689686
MonoBehaviour:
  m_ObjectHideFlags: 0
  m_CorrespondingSourceObject: {fileID: 0}
  m_PrefabInstance: {fileID: 0}
  m_PrefabAsset: {fileID: 0}
  m_GameObject: {fileID: 0}
  m_Enabled: 1
  m_EditorHideFlags: 0
  m_Script: {fileID: 11500000, guid: 9c5b5af5107e35a43818d5411328bfc3, type: 3}
  m_Name: DPadInteraction Standalone
  m_EditorClassIdentifier: 
  m_enabled: 0
  nameUi: D-Pad Binding
  version: 0.0.1
  featureIdInternal: com.unity.openxr.feature.input.dpadinteraction
  openxrExtensionStrings: XR_KHR_binding_modification XR_EXT_dpad_binding
  company: Unity
  priority: 0
  required: 0
  forceThresholdLeft: 0.5
  forceThresholdReleaseLeft: 0.4
  centerRegionLeft: 0.5
  wedgeAngleLeft: 1.5707964
  isStickyLeft: 0
  forceThresholdRight: 0.5
  forceThresholdReleaseRight: 0.4
  centerRegionRight: 0.5
  wedgeAngleRight: 1.5707964
  isStickyRight: 0
  extensionStrings:
  - XR_KHR_binding_modification
  - XR_EXT_dpad_binding
--- !u!114 &8303834981599960747
MonoBehaviour:
  m_ObjectHideFlags: 0
  m_CorrespondingSourceObject: {fileID: 0}
  m_PrefabInstance: {fileID: 0}
  m_PrefabAsset: {fileID: 0}
  m_GameObject: {fileID: 0}
  m_Enabled: 1
  m_EditorHideFlags: 0
  m_Script: {fileID: 11500000, guid: b3aced3429e5911458f4da2dac9d0f29, type: 3}
  m_Name: MetaHandTrackingAim Android
  m_EditorClassIdentifier: 
  m_enabled: 0
  nameUi: Meta Hand Tracking Aim
  version: 0.0.1
  featureIdInternal: com.unity.openxr.feature.input.metahandtrackingaim
  openxrExtensionStrings: XR_FB_hand_tracking_aim
  company: Unity
  priority: 0
  required: 0
--- !u!114 &8491556527918489803
MonoBehaviour:
  m_ObjectHideFlags: 0
  m_CorrespondingSourceObject: {fileID: 0}
  m_PrefabInstance: {fileID: 0}
  m_PrefabAsset: {fileID: 0}
  m_GameObject: {fileID: 0}
  m_Enabled: 1
  m_EditorHideFlags: 0
  m_Script: {fileID: 11500000, guid: c4b862ee14fb479fbfe5fffe655d3ed3, type: 3}
  m_Name: MetaQuestTouchProControllerProfile Standalone
  m_EditorClassIdentifier: 
  m_enabled: 0
  nameUi: Meta Quest Touch Pro Controller Profile
  version: 0.0.1
  featureIdInternal: com.unity.openxr.feature.input.metaquestpro
  openxrExtensionStrings: XR_FB_touch_controller_pro
  company: Unity
  priority: 0
  required: 0
